EESchema Schematic File Version 4
EELAYER 30 0
EELAYER END
$Descr A4 11693 8268
encoding utf-8
Sheet 1 1
Title ""
Date ""
Rev ""
Comp ""
Comment1 ""
Comment2 ""
Comment3 ""
Comment4 ""
$EndDescr
$Comp
L Isolator:PC817 U4
U 1 1 5FC98287
P 2700 4350
F 0 "U4" H 2700 4675 50  0000 C CNN
F 1 "PC817" H 2700 4584 50  0000 C CNN
F 2 "Package_DIP:DIP-4_W8.89mm_SMDSocket_LongPads" H 2500 4150 50  0001 L CIN
F 3 "http://www.soselectronic.cz/a_info/resource/d/pc817.pdf" H 2700 4350 50  0001 L CNN
	1    2700 4350
	1    0    0    -1  
$EndComp
$Comp
L power:GND1 #PWR0101
U 1 1 5FCA3858
P 3150 4650
F 0 "#PWR0101" H 3150 4400 50  0001 C CNN
F 1 "GND1" H 3155 4477 50  0000 C CNN
F 2 "" H 3150 4650 50  0001 C CNN
F 3 "" H 3150 4650 50  0001 C CNN
	1    3150 4650
	1    0    0    -1  
$EndComp
$Comp
L power:GND2 #PWR0102
U 1 1 5FCA4640
P 2300 4650
F 0 "#PWR0102" H 2300 4400 50  0001 C CNN
F 1 "GND2" H 2305 4477 50  0000 C CNN
F 2 "" H 2300 4650 50  0001 C CNN
F 3 "" H 2300 4650 50  0001 C CNN
	1    2300 4650
	1    0    0    -1  
$EndComp
Wire Wire Line
	3000 4450 3150 4450
Wire Wire Line
	3150 4450 3150 4650
Text GLabel 3000 4250 2    50   Input ~ 0
SigOut3
$Comp
L Connector:Conn_01x03_Male J4
U 1 1 5FCA5615
P 1900 4300
F 0 "J4" H 2008 4581 50  0000 C CNN
F 1 "Conn_01x03_Male" H 2008 4490 50  0000 C CNN
F 2 "TerminalBlock:TerminalBlock_bornier-3_P5.08mm" H 1900 4300 50  0001 C CNN
F 3 "~" H 1900 4300 50  0001 C CNN
	1    1900 4300
	1    0    0    -1  
$EndComp
$Comp
L power:+24V #PWR0103
U 1 1 5FCA643A
P 2100 4200
F 0 "#PWR0103" H 2100 4050 50  0001 C CNN
F 1 "+24V" H 2115 4373 50  0000 C CNN
F 2 "" H 2100 4200 50  0001 C CNN
F 3 "" H 2100 4200 50  0001 C CNN
	1    2100 4200
	1    0    0    -1  
$EndComp
Wire Wire Line
	2100 4400 2300 4400
$Comp
L Isolator:PC817 U3
U 1 1 5FCA8D43
P 2700 3300
F 0 "U3" H 2700 3625 50  0000 C CNN
F 1 "PC817" H 2700 3534 50  0000 C CNN
F 2 "Package_DIP:DIP-4_W8.89mm_SMDSocket_LongPads" H 2500 3100 50  0001 L CIN
F 3 "http://www.soselectronic.cz/a_info/resource/d/pc817.pdf" H 2700 3300 50  0001 L CNN
	1    2700 3300
	1    0    0    -1  
$EndComp
$Comp
L power:GND1 #PWR0104
U 1 1 5FCA8DE9
P 3150 3600
F 0 "#PWR0104" H 3150 3350 50  0001 C CNN
F 1 "GND1" H 3155 3427 50  0000 C CNN
F 2 "" H 3150 3600 50  0001 C CNN
F 3 "" H 3150 3600 50  0001 C CNN
	1    3150 3600
	1    0    0    -1  
$EndComp
$Comp
L power:GND2 #PWR0105
U 1 1 5FCA8DF3
P 2300 3600
F 0 "#PWR0105" H 2300 3350 50  0001 C CNN
F 1 "GND2" H 2305 3427 50  0000 C CNN
F 2 "" H 2300 3600 50  0001 C CNN
F 3 "" H 2300 3600 50  0001 C CNN
	1    2300 3600
	1    0    0    -1  
$EndComp
Wire Wire Line
	3000 3400 3150 3400
Wire Wire Line
	3150 3400 3150 3600
Text GLabel 3000 3200 2    50   Input ~ 0
SigOut4
$Comp
L Connector:Conn_01x03_Male J3
U 1 1 5FCA8E02
P 1900 3250
F 0 "J3" H 2008 3531 50  0000 C CNN
F 1 "Conn_01x03_Male" H 2008 3440 50  0000 C CNN
F 2 "TerminalBlock:TerminalBlock_bornier-3_P5.08mm" H 1900 3250 50  0001 C CNN
F 3 "~" H 1900 3250 50  0001 C CNN
	1    1900 3250
	1    0    0    -1  
$EndComp
$Comp
L power:+24V #PWR0106
U 1 1 5FCA8E0C
P 2100 3150
F 0 "#PWR0106" H 2100 3000 50  0001 C CNN
F 1 "+24V" H 2115 3323 50  0000 C CNN
F 2 "" H 2100 3150 50  0001 C CNN
F 3 "" H 2100 3150 50  0001 C CNN
	1    2100 3150
	1    0    0    -1  
$EndComp
Wire Wire Line
	2100 3350 2300 3350
$Comp
L Isolator:PC817 U2
U 1 1 5FCAB183
P 2700 2400
F 0 "U2" H 2700 2725 50  0000 C CNN
F 1 "PC817" H 2700 2634 50  0000 C CNN
F 2 "Package_DIP:DIP-4_W8.89mm_SMDSocket_LongPads" H 2500 2200 50  0001 L CIN
F 3 "http://www.soselectronic.cz/a_info/resource/d/pc817.pdf" H 2700 2400 50  0001 L CNN
	1    2700 2400
	1    0    0    -1  
$EndComp
$Comp
L power:GND1 #PWR0107
U 1 1 5FCAB29B
P 3150 2700
F 0 "#PWR0107" H 3150 2450 50  0001 C CNN
F 1 "GND1" H 3155 2527 50  0000 C CNN
F 2 "" H 3150 2700 50  0001 C CNN
F 3 "" H 3150 2700 50  0001 C CNN
	1    3150 2700
	1    0    0    -1  
$EndComp
$Comp
L power:GND2 #PWR0108
U 1 1 5FCAB2A5
P 2300 2700
F 0 "#PWR0108" H 2300 2450 50  0001 C CNN
F 1 "GND2" H 2305 2527 50  0000 C CNN
F 2 "" H 2300 2700 50  0001 C CNN
F 3 "" H 2300 2700 50  0001 C CNN
	1    2300 2700
	1    0    0    -1  
$EndComp
Wire Wire Line
	3000 2500 3150 2500
Wire Wire Line
	3150 2500 3150 2700
Text GLabel 3000 2300 2    50   Input ~ 0
SigOut5
$Comp
L Connector:Conn_01x03_Male J2
U 1 1 5FCAB2B4
P 1900 2350
F 0 "J2" H 2008 2631 50  0000 C CNN
F 1 "Conn_01x03_Male" H 2008 2540 50  0000 C CNN
F 2 "TerminalBlock:TerminalBlock_bornier-3_P5.08mm" H 1900 2350 50  0001 C CNN
F 3 "~" H 1900 2350 50  0001 C CNN
	1    1900 2350
	1    0    0    -1  
$EndComp
$Comp
L power:+24V #PWR0109
U 1 1 5FCAB2BE
P 2100 2250
F 0 "#PWR0109" H 2100 2100 50  0001 C CNN
F 1 "+24V" H 2115 2423 50  0000 C CNN
F 2 "" H 2100 2250 50  0001 C CNN
F 3 "" H 2100 2250 50  0001 C CNN
	1    2100 2250
	1    0    0    -1  
$EndComp
Wire Wire Line
	2100 2450 2300 2450
$Comp
L Isolator:PC817 U1
U 1 1 5FCAB2CD
P 2700 1400
F 0 "U1" H 2700 1725 50  0000 C CNN
F 1 "PC817" H 2700 1634 50  0000 C CNN
F 2 "Package_DIP:DIP-4_W8.89mm_SMDSocket_LongPads" H 2500 1200 50  0001 L CIN
F 3 "http://www.soselectronic.cz/a_info/resource/d/pc817.pdf" H 2700 1400 50  0001 L CNN
	1    2700 1400
	1    0    0    -1  
$EndComp
$Comp
L power:GND1 #PWR0110
U 1 1 5FCAB2D7
P 3150 1700
F 0 "#PWR0110" H 3150 1450 50  0001 C CNN
F 1 "GND1" H 3155 1527 50  0000 C CNN
F 2 "" H 3150 1700 50  0001 C CNN
F 3 "" H 3150 1700 50  0001 C CNN
	1    3150 1700
	1    0    0    -1  
$EndComp
$Comp
L power:GND2 #PWR0111
U 1 1 5FCAB2E1
P 2300 1700
F 0 "#PWR0111" H 2300 1450 50  0001 C CNN
F 1 "GND2" H 2305 1527 50  0000 C CNN
F 2 "" H 2300 1700 50  0001 C CNN
F 3 "" H 2300 1700 50  0001 C CNN
	1    2300 1700
	1    0    0    -1  
$EndComp
Wire Wire Line
	3000 1500 3150 1500
Wire Wire Line
	3150 1500 3150 1700
Text GLabel 3000 1300 2    50   Input ~ 0
SigOut6
$Comp
L Connector:Conn_01x03_Male J1
U 1 1 5FCAB2F0
P 1900 1350
F 0 "J1" H 2008 1631 50  0000 C CNN
F 1 "Conn_01x03_Male" H 2008 1540 50  0000 C CNN
F 2 "TerminalBlock:TerminalBlock_bornier-3_P5.08mm" H 1900 1350 50  0001 C CNN
F 3 "~" H 1900 1350 50  0001 C CNN
	1    1900 1350
	1    0    0    -1  
$EndComp
$Comp
L power:+24V #PWR0112
U 1 1 5FCAB2FA
P 2100 1250
F 0 "#PWR0112" H 2100 1100 50  0001 C CNN
F 1 "+24V" H 2115 1423 50  0000 C CNN
F 2 "" H 2100 1250 50  0001 C CNN
F 3 "" H 2100 1250 50  0001 C CNN
	1    2100 1250
	1    0    0    -1  
$EndComp
Wire Wire Line
	2100 1450 2300 1450
$Comp
L Isolator:PC817 U6
U 1 1 5FCC2BB9
P 2700 6250
F 0 "U6" H 2700 6575 50  0000 C CNN
F 1 "PC817" H 2700 6484 50  0000 C CNN
F 2 "Package_DIP:DIP-4_W8.89mm_SMDSocket_LongPads" H 2500 6050 50  0001 L CIN
F 3 "http://www.soselectronic.cz/a_info/resource/d/pc817.pdf" H 2700 6250 50  0001 L CNN
	1    2700 6250
	1    0    0    -1  
$EndComp
$Comp
L power:GND1 #PWR0113
U 1 1 5FCC2BC3
P 3150 6550
F 0 "#PWR0113" H 3150 6300 50  0001 C CNN
F 1 "GND1" H 3155 6377 50  0000 C CNN
F 2 "" H 3150 6550 50  0001 C CNN
F 3 "" H 3150 6550 50  0001 C CNN
	1    3150 6550
	1    0    0    -1  
$EndComp
$Comp
L power:GND2 #PWR0114
U 1 1 5FCC2BCD
P 2300 6550
F 0 "#PWR0114" H 2300 6300 50  0001 C CNN
F 1 "GND2" H 2305 6377 50  0000 C CNN
F 2 "" H 2300 6550 50  0001 C CNN
F 3 "" H 2300 6550 50  0001 C CNN
	1    2300 6550
	1    0    0    -1  
$EndComp
Wire Wire Line
	3000 6350 3150 6350
Wire Wire Line
	3150 6350 3150 6550
Text GLabel 3000 6150 2    50   Input ~ 0
SigOut1
$Comp
L Connector:Conn_01x03_Male J6
U 1 1 5FCC2BDC
P 1900 6200
F 0 "J6" H 2008 6481 50  0000 C CNN
F 1 "Conn_01x03_Male" H 2008 6390 50  0000 C CNN
F 2 "TerminalBlock:TerminalBlock_bornier-3_P5.08mm" H 1900 6200 50  0001 C CNN
F 3 "~" H 1900 6200 50  0001 C CNN
	1    1900 6200
	1    0    0    -1  
$EndComp
$Comp
L power:+24V #PWR0115
U 1 1 5FCC2BE6
P 2100 6100
F 0 "#PWR0115" H 2100 5950 50  0001 C CNN
F 1 "+24V" H 2115 6273 50  0000 C CNN
F 2 "" H 2100 6100 50  0001 C CNN
F 3 "" H 2100 6100 50  0001 C CNN
	1    2100 6100
	1    0    0    -1  
$EndComp
Wire Wire Line
	2100 6300 2300 6300
$Comp
L Isolator:PC817 U5
U 1 1 5FCC2BF5
P 2700 5250
F 0 "U5" H 2700 5575 50  0000 C CNN
F 1 "PC817" H 2700 5484 50  0000 C CNN
F 2 "Package_DIP:DIP-4_W8.89mm_SMDSocket_LongPads" H 2500 5050 50  0001 L CIN
F 3 "http://www.soselectronic.cz/a_info/resource/d/pc817.pdf" H 2700 5250 50  0001 L CNN
	1    2700 5250
	1    0    0    -1  
$EndComp
$Comp
L power:GND1 #PWR0116
U 1 1 5FCC2BFF
P 3150 5550
F 0 "#PWR0116" H 3150 5300 50  0001 C CNN
F 1 "GND1" H 3155 5377 50  0000 C CNN
F 2 "" H 3150 5550 50  0001 C CNN
F 3 "" H 3150 5550 50  0001 C CNN
	1    3150 5550
	1    0    0    -1  
$EndComp
$Comp
L power:GND2 #PWR0117
U 1 1 5FCC2C09
P 2300 5550
F 0 "#PWR0117" H 2300 5300 50  0001 C CNN
F 1 "GND2" H 2305 5377 50  0000 C CNN
F 2 "" H 2300 5550 50  0001 C CNN
F 3 "" H 2300 5550 50  0001 C CNN
	1    2300 5550
	1    0    0    -1  
$EndComp
Wire Wire Line
	3000 5350 3150 5350
Wire Wire Line
	3150 5350 3150 5550
Text GLabel 3000 5150 2    50   Input ~ 0
SigOut2
$Comp
L Connector:Conn_01x03_Male J5
U 1 1 5FCC2C18
P 1900 5200
F 0 "J5" H 2008 5481 50  0000 C CNN
F 1 "Conn_01x03_Male" H 2008 5390 50  0000 C CNN
F 2 "TerminalBlock:TerminalBlock_bornier-3_P5.08mm" H 1900 5200 50  0001 C CNN
F 3 "~" H 1900 5200 50  0001 C CNN
	1    1900 5200
	1    0    0    -1  
$EndComp
$Comp
L power:+24V #PWR0118
U 1 1 5FCC2C22
P 2100 5100
F 0 "#PWR0118" H 2100 4950 50  0001 C CNN
F 1 "+24V" H 2115 5273 50  0000 C CNN
F 2 "" H 2100 5100 50  0001 C CNN
F 3 "" H 2100 5100 50  0001 C CNN
	1    2100 5100
	1    0    0    -1  
$EndComp
Wire Wire Line
	2100 5300 2300 5300
$Comp
L Connector:Conn_01x07_Male J8
U 1 1 5FCD6CC9
P 4700 2150
F 0 "J8" H 4672 2082 50  0000 R CNN
F 1 "Conn_01x07_Male" H 4672 2173 50  0000 R CNN
F 2 "TerminalBlock_Phoenix:TerminalBlock_Phoenix_MKDS-1,5-7-5.08_1x07_P5.08mm_Horizontal" H 4700 2150 50  0001 C CNN
F 3 "~" H 4700 2150 50  0001 C CNN
	1    4700 2150
	-1   0    0    1   
$EndComp
Text GLabel 4500 2450 0    50   Input ~ 0
SigOut1
Text GLabel 4500 2350 0    50   Input ~ 0
SigOut2
Text GLabel 4500 2250 0    50   Input ~ 0
SigOut3
Text GLabel 4500 2150 0    50   Input ~ 0
SigOut4
Text GLabel 4500 2050 0    50   Input ~ 0
SigOut5
Text GLabel 4500 1950 0    50   Input ~ 0
SigOut6
$Comp
L power:GND1 #PWR0119
U 1 1 5FCDCAD5
P 4300 1850
F 0 "#PWR0119" H 4300 1600 50  0001 C CNN
F 1 "GND1" H 4305 1677 50  0000 C CNN
F 2 "" H 4300 1850 50  0001 C CNN
F 3 "" H 4300 1850 50  0001 C CNN
	1    4300 1850
	0    1    1    0   
$EndComp
Wire Wire Line
	4500 1850 4300 1850
$Comp
L Connector:Conn_01x02_Male J7
U 1 1 5FCDE570
P 4500 1150
F 0 "J7" H 4608 1331 50  0000 C CNN
F 1 "Conn_01x02_Male" H 4608 1240 50  0000 C CNN
F 2 "TerminalBlock:TerminalBlock_bornier-2_P5.08mm" H 4500 1150 50  0001 C CNN
F 3 "~" H 4500 1150 50  0001 C CNN
	1    4500 1150
	-1   0    0    1   
$EndComp
$Comp
L power:GND2 #PWR0120
U 1 1 5FCE07AD
P 4300 1350
F 0 "#PWR0120" H 4300 1100 50  0001 C CNN
F 1 "GND2" H 4305 1177 50  0000 C CNN
F 2 "" H 4300 1350 50  0001 C CNN
F 3 "" H 4300 1350 50  0001 C CNN
	1    4300 1350
	1    0    0    -1  
$EndComp
Wire Wire Line
	4300 1150 4300 1350
$Comp
L power:+24V #PWR0121
U 1 1 5FCE0ACD
P 4300 1050
F 0 "#PWR0121" H 4300 900 50  0001 C CNN
F 1 "+24V" H 4315 1223 50  0000 C CNN
F 2 "" H 4300 1050 50  0001 C CNN
F 3 "" H 4300 1050 50  0001 C CNN
	1    4300 1050
	1    0    0    -1  
$EndComp
$Comp
L Device:R_Small R6
U 1 1 5FCFA85F
P 2200 2250
F 0 "R6" V 2004 2250 50  0000 C CNN
F 1 "R_Small" V 2095 2250 50  0000 C CNN
F 2 "Resistor_SMD:R_1206_3216Metric" H 2200 2250 50  0001 C CNN
F 3 "~" H 2200 2250 50  0001 C CNN
	1    2200 2250
	0    1    1    0   
$EndComp
$Comp
L Device:R_Small R1
U 1 1 5FCFC244
P 2200 1250
F 0 "R1" V 2004 1250 50  0000 C CNN
F 1 "R_Small" V 2095 1250 50  0000 C CNN
F 2 "Resistor_SMD:R_1206_3216Metric" H 2200 1250 50  0001 C CNN
F 3 "~" H 2200 1250 50  0001 C CNN
	1    2200 1250
	0    1    1    0   
$EndComp
Connection ~ 2100 1350
Wire Wire Line
	2100 1350 2050 1350
$Comp
L Device:R_Small R2
U 1 1 5FCFE45A
P 2200 3150
F 0 "R2" V 2004 3150 50  0000 C CNN
F 1 "R_Small" V 2095 3150 50  0000 C CNN
F 2 "Resistor_SMD:R_1206_3216Metric" H 2200 3150 50  0001 C CNN
F 3 "~" H 2200 3150 50  0001 C CNN
	1    2200 3150
	0    1    1    0   
$EndComp
$Comp
L Device:R_Small R3
U 1 1 5FCFEF50
P 2200 4200
F 0 "R3" V 2004 4200 50  0000 C CNN
F 1 "R_Small" V 2095 4200 50  0000 C CNN
F 2 "Resistor_SMD:R_1206_3216Metric" H 2200 4200 50  0001 C CNN
F 3 "~" H 2200 4200 50  0001 C CNN
	1    2200 4200
	0    1    1    0   
$EndComp
$Comp
L Device:R_Small R4
U 1 1 5FCFFC3E
P 2200 5100
F 0 "R4" V 2004 5100 50  0000 C CNN
F 1 "R_Small" V 2095 5100 50  0000 C CNN
F 2 "Resistor_SMD:R_1206_3216Metric" H 2200 5100 50  0001 C CNN
F 3 "~" H 2200 5100 50  0001 C CNN
	1    2200 5100
	0    1    1    0   
$EndComp
$Comp
L Device:R_Small R5
U 1 1 5FD0064A
P 2200 6100
F 0 "R5" V 2004 6100 50  0000 C CNN
F 1 "R_Small" V 2095 6100 50  0000 C CNN
F 2 "Resistor_SMD:R_1206_3216Metric" H 2200 6100 50  0001 C CNN
F 3 "~" H 2200 6100 50  0001 C CNN
	1    2200 6100
	0    1    1    0   
$EndComp
Connection ~ 2100 2250
Connection ~ 2100 1250
Connection ~ 2100 3150
Connection ~ 2100 4200
Connection ~ 2100 5100
Wire Wire Line
	2300 5100 2400 5100
Wire Wire Line
	2400 5100 2400 5150
Connection ~ 2100 6100
Wire Wire Line
	2300 6100 2400 6100
Wire Wire Line
	2400 6100 2400 6150
Wire Wire Line
	2300 6300 2300 6550
Wire Wire Line
	2300 5300 2300 5550
Wire Wire Line
	2300 3350 2300 3600
Wire Wire Line
	2300 2450 2300 2700
Wire Wire Line
	2300 1450 2300 1700
Wire Wire Line
	2300 1250 2400 1250
Wire Wire Line
	2400 1250 2400 1300
Wire Wire Line
	2400 1350 2400 1500
Wire Wire Line
	2100 1350 2400 1350
Wire Wire Line
	2400 2350 2400 2500
Wire Wire Line
	2100 2350 2400 2350
Wire Wire Line
	2400 2300 2400 2250
Wire Wire Line
	2400 2250 2300 2250
Wire Wire Line
	2300 3150 2400 3150
Wire Wire Line
	2400 3150 2400 3200
Wire Wire Line
	2400 6350 2400 6200
Wire Wire Line
	2100 6200 2400 6200
Wire Wire Line
	2400 5350 2400 5200
Wire Wire Line
	2100 5200 2400 5200
Wire Wire Line
	2300 4200 2400 4200
Wire Wire Line
	2400 4200 2400 4250
Wire Wire Line
	2300 4400 2300 4650
Wire Wire Line
	2400 4300 2400 4450
Wire Wire Line
	2100 4300 2400 4300
Wire Wire Line
	2400 3400 2400 3250
Wire Wire Line
	2100 3250 2400 3250
$Comp
L Connector:Conn_01x01_Female J11
U 1 1 5FD3BB69
P 5250 4200
F 0 "J11" H 5278 4226 50  0000 L CNN
F 1 "Conn_01x01_Female" H 5278 4135 50  0000 L CNN
F 2 "MountingHole:MountingHole_2.7mm_M2.5_ISO7380_Pad" H 5250 4200 50  0001 C CNN
F 3 "~" H 5250 4200 50  0001 C CNN
	1    5250 4200
	1    0    0    -1  
$EndComp
NoConn ~ 5050 4200
$Comp
L Connector:Conn_01x01_Female J10
U 1 1 5FD3EFDF
P 5200 4450
F 0 "J10" H 5228 4476 50  0000 L CNN
F 1 "Conn_01x01_Female" H 5228 4385 50  0000 L CNN
F 2 "MountingHole:MountingHole_2.7mm_M2.5_ISO7380_Pad" H 5200 4450 50  0001 C CNN
F 3 "~" H 5200 4450 50  0001 C CNN
	1    5200 4450
	1    0    0    -1  
$EndComp
NoConn ~ 5000 4450
$Comp
L Connector:Conn_01x01_Female J12
U 1 1 5FD3FF04
P 5250 4750
F 0 "J12" H 5278 4776 50  0000 L CNN
F 1 "Conn_01x01_Female" H 5278 4685 50  0000 L CNN
F 2 "MountingHole:MountingHole_2.7mm_M2.5_ISO7380_Pad" H 5250 4750 50  0001 C CNN
F 3 "~" H 5250 4750 50  0001 C CNN
	1    5250 4750
	1    0    0    -1  
$EndComp
NoConn ~ 5050 4750
$Comp
L Connector:Conn_01x01_Female J9
U 1 1 5FD40DE5
P 5150 5100
F 0 "J9" H 5178 5126 50  0000 L CNN
F 1 "Conn_01x01_Female" H 5178 5035 50  0000 L CNN
F 2 "MountingHole:MountingHole_2.7mm_M2.5_ISO7380_Pad" H 5150 5100 50  0001 C CNN
F 3 "~" H 5150 5100 50  0001 C CNN
	1    5150 5100
	1    0    0    -1  
$EndComp
NoConn ~ 4950 5100
$EndSCHEMATC
